<?xml version="1.0" encoding="utf-8"?>
<!-- Generator: Adobe Illustrator 22.0.1, SVG Export Plug-In . SVG Version: 6.00 Build 0)  -->
<svg version="1.1" xmlns="http://www.w3.org/2000/svg" xmlns:xlink="http://www.w3.org/1999/xlink" x="0px" y="0px"
	 viewBox="0 0 28.4 28.4" style="enable-background:new 0 0 28.4 28.4;" xml:space="preserve">
<style type="text/css">
	.st0{display:none;}
	.st1{display:inline;fill:#003063;}
	.st2{display:inline;}
	.st3{fill:none;stroke:#FFFFFF;stroke-width:2;stroke-miterlimit:10;}
	.st4{fill:none;stroke:#003063;stroke-width:2;stroke-linecap:round;stroke-miterlimit:10;}
	.st5{display:inline;fill:none;stroke:#E20613;stroke-width:0.8;stroke-linecap:round;stroke-linejoin:round;stroke-miterlimit:10;}
	.st6{fill:none;stroke:#E20613;stroke-width:0.9;}
	.st7{fill:none;stroke:#E20613;stroke-width:0.9;stroke-linecap:round;}
	.st8{display:inline;fill:none;stroke:#E20613;stroke-width:0.9;stroke-linecap:round;stroke-linejoin:round;stroke-miterlimit:10;}
	.st9{display:inline;fill:none;stroke:#E20613;stroke-width:0.9;}
</style>
<g id="Ebene_4" class="st0">
	<circle class="st1" cx="14.2" cy="14.2" r="13.5"/>
</g>
<g id="Ebene_5" class="st0">
</g>
<g id="Ebene_2" class="st0">
</g>
<g id="Ebene_3" class="st0">
	<g class="st2">
		<line class="st3" x1="1.3" y1="6.1" x2="27.1" y2="6.1"/>
		<line class="st3" x1="1.3" y1="14.2" x2="27.1" y2="14.2"/>
		<line class="st3" x1="1.3" y1="22.2" x2="27.1" y2="22.2"/>
	</g>
</g>
<g id="Ebene_3_Kopie" class="st0">
	<g class="st2">
		<line class="st3" x1="3.4" y1="3.4" x2="25" y2="24.9"/>
		<line class="st3" x1="24.9" y1="3.4" x2="3.4" y2="24.9"/>
	</g>
</g>
<g id="Ebene_1" class="st0">
	<g class="st2">
		<circle class="st4" cx="16.8" cy="11.5" r="9.1"/>
		<line class="st4" x1="10.4" y1="18" x2="2.5" y2="25.9"/>
	</g>
</g>
<g id="Ebene_9" class="st0">
	<path class="st5" d="M2.8,17.7l0.9-6.4C4,9.7,5,8.6,6.5,8.6h2.1c1.5,0,2.5,1.2,2.8,2.8l0.9,6.4 M9.4,11.1c0,0,0.8,4.2,0.9,5.7
		c0.2,1.8,0,7.4,0,7.4c0,0.8-0.6,1.4-1.4,1.4H6.2c-0.8,0-1.4-0.6-1.4-1.4c0,0-0.2-5.5,0-7.3c0.1-1.4,0.9-5.7,0.9-5.7 M7.6,25.6v-9.2
		 M10.3,4.3C10.3,5.8,9.1,7,7.6,7C6.1,7,4.8,5.8,4.8,4.3c0-1.5,1.2-2.7,2.7-2.7C9.1,1.5,10.3,2.8,10.3,4.3z"/>
	<path class="st5" d="M15.3,17.8v-6.4c0-1.5,1.3-2.8,2.8-2.8h4c1.5,0,2.8,1.3,2.8,2.8v6.4 M22.9,11.2v13.1c0,0.8-0.6,1.4-1.4,1.4
		h-2.7c-0.8,0-1.4-0.6-1.4-1.4v-13 M20.1,25.6v-9.2 M22.8,4.3c0,1.5-1.2,2.8-2.8,2.8s-2.8-1.2-2.8-2.8c0-1.5,1.2-2.8,2.8-2.8
		S22.8,2.7,22.8,4.3z"/>
</g>
<g id="Ebene_7">
	<g>
		<path class="st6" d="M12.6,1.2c0,0-1.6,0-1.6,1.6v21.8c0,0,0,1.6,1.6,1.6h10.7c0,0,1.6,0,1.6-1.6V2.7c0,0,0-1.6-1.6-1.6H12.6z"/>
		<path class="st7" d="M13.8,4.9h2.8 M19.2,4.9H22 M13.8,9.2h2.8 M19.2,9.2H22 M13.8,13.5h2.8 M19.2,13.5H22 M13.8,17.5h2.8
			 M19.2,17.5H22 M13.8,21.5h2.8 M19.2,21.5H22 M5.1,13.5h2.8 M5.1,17.5h2.8 M5.1,21.5h2.8"/>
		<path class="st6" d="M3.6,8.9c0,0-1.6,0-1.6,1.6v14c0,0,0,1.6,1.6,1.6h5.9c0,0,1.6,0,1.6-1.6v-14c0,0,0-1.6-1.6-1.6H3.6z"/>
	</g>
</g>
<g id="Ebene_8" class="st0">
	<g class="st2">
		<path class="st6" d="M4.9,1.2c0,0-3.5,0-3.5,3.5v3.3c0,0,0,3.5,3.5,3.5h3.3c0,0,3.5,0,3.5-3.5V4.6c0,0,0-3.5-3.5-3.5H4.9z"/>
		<path class="st6" d="M4.9,16.3c0,0-3.5,0-3.5,3.5v3.3c0,0,0,3.5,3.5,3.5h3.3c0,0,3.5,0,3.5-3.5v-3.3c0,0,0-3.5-3.5-3.5H4.9z"/>
		<path class="st6" d="M19.9,1.2c0,0-3.5,0-3.5,3.5v3.3c0,0,0,3.5,3.5,3.5h3.3c0,0,3.5,0,3.5-3.5V4.6c0,0,0-3.5-3.5-3.5H19.9z"/>
		<path class="st6" d="M19.9,16.3c0,0-3.5,0-3.5,3.5v3.3c0,0,0,3.5,3.5,3.5h3.3c0,0,3.5,0,3.5-3.5v-3.3c0,0,0-3.5-3.5-3.5H19.9z"/>
		<line class="st6" x1="11.5" y1="6.3" x2="16.7" y2="6.3"/>
		<line class="st6" x1="11.5" y1="21.5" x2="16.7" y2="21.5"/>
		<line class="st6" x1="6.6" y1="16.5" x2="6.6" y2="11.5"/>
		<line class="st6" x1="21.6" y1="16.5" x2="21.6" y2="11.5"/>
	</g>
</g>
<g id="Ebene_10" class="st0">
	<path class="st8" d="M1.8,17.9l1-6.6C3,9.6,4.1,8.4,5.7,8.4h2.1c1.6,0,2.6,1.2,2.9,2.9l1,6.6 M8.6,11.1c0,0,0.8,4.4,1,5.8
		c0.2,1.9,0,7.7,0,7.7c0,0.8-0.7,1.5-1.5,1.5H5.3c-0.8,0-1.5-0.7-1.5-1.5c0,0-0.2-5.7,0-7.6c0.1-1.5,1-5.8,1-5.8 M6.7,26v-9.5
		 M9.6,4c0,1.6-1.3,2.8-2.8,2.8C5.2,6.8,3.9,5.5,3.9,4c0-1.6,1.3-2.8,2.8-2.8C8.3,1.1,9.6,2.4,9.6,4z"/>
	<path class="st9" d="M14.4,25.8c3.5,0,6.4-5.5,6.4-12.2c0-6.7-2.9-12.2-6.4-12.2 M14.4,19.8c6.7,0,12.2-2.8,12.2-6.2
		c0-3.4-5.5-6.2-12.2-6.2"/>
	<path class="st9" d="M14.4,1.4v24.4v0c6.7,0,12.2-5.5,12.2-12.2C26.6,6.9,21.2,1.4,14.4,1.4z"/>
	<line class="st9" x1="26.6" y1="13.6" x2="14.2" y2="13.6"/>
</g>
</svg>
